<?xml version="1.0" encoding="utf-8"?>
<!-- Generator: Adobe Illustrator 16.0.0, SVG Export Plug-In . SVG Version: 6.00 Build 0)  -->
<!DOCTYPE svg PUBLIC "-//W3C//DTD SVG 1.1//EN" "http://www.w3.org/Graphics/SVG/1.1/DTD/svg11.dtd">
<svg version="1.1" id="Layer_1" xmlns="http://www.w3.org/2000/svg" xmlns:xlink="http://www.w3.org/1999/xlink" x="0px" y="0px"
	 width="1600px" height="1600px" viewBox="0 0 1600 1600" enable-background="new 0 0 1600 1600" xml:space="preserve">
<image display="none" overflow="visible" width="1600" height="1200" xlink:href="../../../../Downloads/dribbblegalaxy1_4x.jpg"  transform="matrix(1.5575 0 0 1.5575 -1100 363)">
</image>
<g>
	<g>
		<path fill="#5DC3B1" d="M37.551,352.867l1248.028-3.202c0,184.264-36.467,355.909-99.273,500.034
			c-111.084,254.896-279.14,423.669-524.753,423.669C265.51,1273.368,38.722,861.54,37.551,352.867z"/>
		<path fill="#5DC3B1" d="M1186.306,838.893c118.766,3.901,333.536-17.028,367.29-210.935
			C1605.759,328.283,1285,338.859,1285,338.859v74.146c0,0,226.512-4.515,194.753,196.908
			c-20.897,132.551-178.497,145.639-260.399,142.985L1186.306,838.893z"/>
		<path fill="#0B5A75" d="M661.552,1284.916c-100.055,0-192.701-25.351-275.363-75.35
			c-78.194-47.295-146.338-115.902-202.543-203.917c-53.961-84.505-95.787-185.041-124.312-298.818
			C31.139,594.378,16.694,472.072,16.398,343.31l-0.416-21.147L1306,318.852v21.208c0,180.978-34.57,356.808-100.671,508.484
			c-59.459,136.441-132.479,242.438-217.388,315.047C893.798,1244.097,784.107,1284.916,661.552,1284.916z M58.885,364.361
			c1.732,117.565,15.669,229.213,41.486,332.182c27.415,109.346,67.429,205.683,118.933,286.336
			c108.503,169.918,261.431,259.731,442.249,259.731c57.303,0,111.965-9.747,162.465-28.97
			c48.415-18.43,94.379-46.087,136.613-82.203c79.999-68.409,149.403-169.274,206.283-299.795
			c61.216-140.472,94.739-302.678,97.349-470.374L58.885,364.361z"/>
		<path fill="#0B5A75" d="M1210.877,857c-0.004,0,0.002,0-0.002,0c-8.318,0-16.791-0.287-25.181-0.562l-26.187-0.933l47.396-122.799
			l13.206,0.41c5.751,0.187,11.568,0.271,17.29,0.271c37.831,0,92.586-4.144,138.597-23.853
			c50.029-21.429,78.055-55.356,85.68-103.718c7.826-49.642-0.74-89.479-25.463-118.405c-19.544-22.867-48.936-39.32-87.357-48.901
			c-30.927-7.712-57.102-8.104-62.034-8.104c-0.496,0-0.79,0.003-0.865,0.005l-18.93,0.325L1267,411.805v-92.117l17.994-0.629
			c0,0,1.605-0.056,4.596-0.056c26.514,0,162.608,4.558,238.282,94.541c45.098,53.626,60.023,126.436,44.363,216.405
			c-7.988,45.889-26.145,85.703-53.966,118.335c-24.197,28.383-55.96,51.755-94.401,69.179
			C1352.041,850.02,1268.396,857,1210.877,857z M1232.167,770.573l-18.883,48.91c53.75-0.186,130.412-6.693,195.22-36.066
			c33.42-15.147,60.821-35.092,81.441-59.279c23.441-27.496,38.792-61.333,45.621-100.572
			c13.688-78.639,1.406-141.24-36.289-186.065C1443.055,370.646,1345,358.641,1304,356.614v37.265
			c13,0.963,32.566,3.234,53.75,8.517c46.09,11.493,82.024,31.961,106.701,60.833c32.117,37.577,43.562,87.5,33.962,148.382
			c-5.127,32.525-18.106,60.752-38.603,83.898c-17.609,19.888-40.876,36.116-69.165,48.234
			c-51.813,22.193-111.934,26.854-153.248,26.854C1235.659,770.598,1233.917,770.59,1232.167,770.573z"/>
		<path opacity="0.5" fill="#F2F2F2" d="M271.039,1013.773c-0.906-1.254-91.038-126.904-132.204-269.721
			c-12.684-44.01-23.502-112.891-32.153-204.729c-6.42-68.16-9.184-124.264-9.211-124.823l21.128-1.027
			c0.108,2.213,11.106,222.514,40.562,324.721c40.117,139.179,128.136,261.961,129.021,263.185L271.039,1013.773z"/>
		<path opacity="0.5" fill="#F2F2F2" d="M412.188,1147.836c-1.662-1.174-40.839-28.868-53.093-41.12
			c-11.458-11.454-39.342-37.031-39.622-37.289l14.296-15.591c1.158,1.062,28.502,26.146,40.281,37.92
			c9.119,9.118,39.427,31.098,50.335,38.797L412.188,1147.836z"/>
		<path opacity="0.5" fill="#0B5A75" d="M1203.621,665.952l-19.241-6.541C1220.863,556.375,1220.376,437,1219.367,403H1040v-21
			h198.77l0.588,9.603C1239.727,397.638,1247.912,540.863,1203.621,665.952z"/>
		<path opacity="0.5" fill="#0B5A75" d="M1041.684,1006.449l-17.522-11.852c79.345-117.288,107.717-202.194,107.993-203.038
			l20.098,6.604C1151.081,801.724,1122.668,886.736,1041.684,1006.449z"/>
	</g>
	<g>
		<rect x="325.738" y="747.953" fill="#FFFFFF" width="24.611" height="14.755"/>
		<rect x="363.866" y="747.953" fill="#FFFFFF" width="263.155" height="14.755"/>
		<rect x="627.021" y="747.436" fill="#0B5A76" width="301.253" height="15.789"/>
		<g>
			<rect x="577.825" y="677.862" fill="#0B5A76" width="14.756" height="44.268"/>
			<rect x="577.825" y="616.438" fill="#0B5A76" width="14.756" height="52.65"/>
			<path fill="#0B5A76" d="M592.581,607.663h-14.756v-52.649h14.756V607.663z M592.581,546.238h-14.756v-52.649h14.756V546.238z"/>
			<rect x="577.825" y="440.546" fill="#0B5A76" width="14.756" height="44.267"/>
		</g>
		<rect x="630.71" y="693.843" fill="#0B5A76" width="14.756" height="28.287"/>
		<g>
			
				<rect x="737.502" y="610.423" transform="matrix(0.7071 0.7071 -0.7071 0.7071 668.0867 -340.3594)" fill="#0B5A76" width="14.756" height="51.645"/>
			
				<rect x="779.8" y="568.449" transform="matrix(0.7071 0.7071 -0.7071 0.7071 650.4976 -382.6495)" fill="#0B5A76" width="14.757" height="50.996"/>
			
				<rect x="822.099" y="525.825" transform="matrix(0.7071 0.7071 -0.7071 0.7071 632.9767 -424.9456)" fill="#0B5A76" width="14.756" height="51.646"/>
		</g>
		<rect x="630.71" y="787.307" fill="#FFFFFF" width="14.756" height="314.784"/>
		<g>
			
				<rect x="662.485" y="798.189" transform="matrix(0.7071 0.7071 -0.7071 0.7071 771.2572 -250.7594)" fill="#FFFFFF" width="51.646" height="14.755"/>
			
				<rect x="705.184" y="839.261" transform="matrix(0.7071 0.7071 -0.7071 0.7071 812.3032 -267.7742)" fill="#FFFFFF" width="48.394" height="14.756"/>
			
				<rect x="744.633" y="880.334" transform="matrix(0.7071 0.7071 -0.7071 0.7071 853.3765 -284.7878)" fill="#FFFFFF" width="51.642" height="14.757"/>
		</g>
		<g>
			
				<rect x="523.916" y="847.366" transform="matrix(0.7072 0.7071 -0.7071 0.7072 772.9803 -119.9469)" fill="#FFFFFF" width="14.755" height="51.646"/>
			
				<rect x="483.151" y="890.084" transform="matrix(0.7071 0.7071 -0.7071 0.7071 789.9591 -79.1588)" fill="#FFFFFF" width="14.758" height="47.74"/>
			
				<rect x="442.387" y="928.897" transform="matrix(0.707 0.7072 -0.7072 0.707 806.9138 -38.3679)" fill="#FFFFFF" width="14.757" height="51.642"/>
		</g>
		<g>
			<rect x="674.978" y="987.734" fill="#FFFFFF" width="14.755" height="36.89"/>
			<rect x="674.978" y="1029.695" fill="#FFFFFF" width="14.755" height="30.434"/>
			<rect x="674.978" y="1065.201" fill="#FFFFFF" width="14.755" height="36.89"/>
		</g>
	</g>
	<g>
		<path fill="#FFFFFF" d="M224.435,544.35V442.867h15.249c6.791,0,12.202,0.526,16.234,1.578c4.075,1.052,7.515,2.826,10.319,5.324
			c2.848,2.586,5.104,5.807,6.77,9.662c1.708,3.9,2.563,7.844,2.563,11.831c0,7.274-2.783,13.431-8.347,18.469
			c5.39,1.84,9.639,5.061,12.751,9.662c3.155,4.557,4.732,9.859,4.732,15.906c0,7.931-2.805,14.636-8.414,20.112
			c-3.374,3.375-7.164,5.718-11.371,7.034c-4.601,1.271-10.363,1.906-17.286,1.906H224.435z M239.749,486.444h4.798
			c5.696,0,9.87-1.259,12.521-3.779c2.65-2.519,3.977-6.233,3.977-11.141c0-4.776-1.359-8.402-4.076-10.878
			c-2.717-2.475-6.66-3.713-11.831-3.713h-5.39V486.444z M239.749,529.956h9.465c6.923,0,12.006-1.358,15.249-4.075
			c3.418-2.936,5.127-6.66,5.127-11.174c0-4.381-1.644-8.062-4.93-11.042c-3.199-2.935-8.917-4.404-17.155-4.404h-7.756V529.956z"/>
		<path fill="#FFFFFF" d="M319.345,442.867v87.089h29.84v14.394H304.03V442.867H319.345z"/>
		<path fill="#FFFFFF" d="M354.508,493.149c0-14.285,5.236-26.554,15.709-36.808c10.428-10.253,22.96-15.38,37.596-15.38
			c14.459,0,26.859,5.17,37.201,15.512c10.385,10.342,15.578,22.764,15.578,37.267c0,14.591-5.215,26.971-15.643,37.136
			c-10.474,10.21-23.115,15.314-37.924,15.314c-13.103,0-24.868-4.535-35.296-13.605
			C360.248,522.552,354.508,509.406,354.508,493.149z M369.954,493.346c0,11.218,3.769,20.441,11.305,27.671
			c7.493,7.23,16.147,10.845,25.962,10.845c10.648,0,19.63-3.681,26.948-11.042c7.317-7.448,10.977-16.518,10.977-27.21
			c0-10.822-3.615-19.893-10.846-27.211c-7.187-7.361-16.082-11.042-26.685-11.042c-10.561,0-19.479,3.681-26.751,11.042
			C373.59,473.672,369.954,482.655,369.954,493.346z"/>
		<path fill="#FFFFFF" d="M554.844,448.323v18.14c-8.852-7.404-18.009-11.107-27.474-11.107c-10.43,0-19.215,3.747-26.357,11.24
			c-7.187,7.45-10.779,16.563-10.779,27.342c0,10.647,3.592,19.631,10.779,26.948c7.187,7.318,15.994,10.977,26.422,10.977
			c5.39,0,9.968-0.876,13.737-2.629c2.104-0.876,4.283-2.06,6.54-3.549c2.256-1.489,4.634-3.286,7.131-5.39v18.469
			c-8.764,4.953-17.966,7.428-27.605,7.428c-14.504,0-26.882-5.062-37.136-15.183c-10.21-10.209-15.314-22.522-15.314-36.939
			c0-12.925,4.272-24.45,12.817-34.572c10.516-12.4,24.122-18.601,40.817-18.601C537.536,440.896,546.343,443.372,554.844,448.323z"
			/>
		<path fill="#FFFFFF" d="M595.463,478.095l36.347-35.228h20.441l-45.877,45.943l46.14,55.54h-20.507l-36.543-45.155V478.095z"/>
	</g>
	<g>
		<path fill="#FFFFFF" d="M743.11,448.323v18.14c-8.852-7.404-18.01-11.107-27.474-11.107c-10.429,0-19.215,3.747-26.356,11.24
			c-7.188,7.45-10.779,16.563-10.779,27.342c0,10.647,3.591,19.631,10.779,26.948c7.186,7.318,15.993,10.977,26.422,10.977
			c5.39,0,9.967-0.876,13.737-2.629c2.103-0.876,4.282-2.06,6.54-3.549c2.256-1.489,4.633-3.286,7.131-5.39v18.469
			c-8.765,4.953-17.966,7.428-27.605,7.428c-14.504,0-26.883-5.062-37.135-15.183c-10.211-10.209-15.315-22.522-15.315-36.939
			c0-12.925,4.272-24.45,12.816-34.572c10.516-12.4,24.122-18.601,40.817-18.601C725.801,440.896,734.608,443.372,743.11,448.323z"
			/>
		<path fill="#FFFFFF" d="M780.574,482.566h43.775v-39.699h15.312V544.35H824.35v-47.389h-43.775v47.389h-15.313V442.867h15.313
			V482.566z"/>
		<path fill="#FFFFFF" d="M923.595,519.702H880.15l-11.305,24.648h-16.5l50.217-107.858l48.439,107.858h-16.759L923.595,519.702z
			 M917.352,505.308l-15.053-34.506l-15.774,34.506H917.352z"/>
		<path fill="#FFFFFF" d="M979.004,442.867V544.35h-15.315V442.867H979.004z"/>
		<path fill="#FFFFFF" d="M1003.39,544.35V435.966l74.009,77.427v-70.525h15.312v107.661l-74.008-77.229v71.051H1003.39z"/>
	</g>
</g>
</svg>
